# Blender v2.79 (sub 0) OBJ File: ''
# www.blender.org
mtllib vest.mtl
o M_vest_Untitled.016
v -0.112930 0.930595 -0.026079
v -0.183363 0.905763 -0.028729
v -0.193468 0.895851 0.023917
v -0.123010 0.911541 0.021404
v -0.200453 0.859876 0.064067
v -0.204620 0.810139 0.086534
v -0.199509 0.760657 0.093814
v -0.090893 0.923838 0.031415
v -0.199649 0.689755 0.099318
v -0.202953 0.641083 0.081684
v -0.159900 0.613558 0.113471
v -0.112166 0.529824 0.160522
v -0.095210 0.878041 0.073837
v -0.172391 0.761129 0.112211
v -0.174800 0.814332 0.094834
v -0.169368 0.863841 0.063416
v -0.162401 0.902214 0.022464
v -0.154650 0.915206 -0.028456
v -0.086041 0.949086 -0.025603
v -0.096911 0.395233 0.172776
v -0.095683 0.331149 0.158053
v -0.151901 0.528921 0.113499
v -0.044781 0.911387 -0.100092
v -0.034904 0.940932 -0.066140
v -0.103131 0.909516 -0.090182
v -0.065052 0.945750 -0.053360
v -0.148703 0.895388 -0.086851
v -0.175498 0.888412 -0.085948
v 0.006324 0.781920 -0.137064
v -0.046919 0.781885 -0.149210
v -0.048001 0.847805 -0.131475
v -0.103899 0.847484 -0.134195
v -0.102807 0.781819 -0.144713
v -0.147851 0.845715 -0.123514
v -0.175706 0.838090 -0.121020
v -0.147703 0.781443 -0.140317
v -0.178662 0.781062 -0.136401
v -0.050853 0.513689 -0.167213
v -0.054365 0.437055 -0.155307
v -0.105939 0.513330 -0.148904
v -0.146048 0.463298 0.121510
v -0.056547 0.409254 -0.160699
v -0.062733 0.397572 -0.163330
v -0.056657 0.310150 -0.169485
v -0.112920 0.439663 -0.145323
v -0.116887 0.310338 -0.138242
v -0.154046 0.440675 -0.099926
v -0.165229 0.510740 -0.116371
v -0.190814 0.444533 -0.049534
v -0.204968 0.506532 -0.051581
v -0.047117 0.671817 -0.160053
v -0.105508 0.670513 -0.146343
v -0.153483 0.669744 -0.138826
v -0.180163 0.671063 -0.118882
v -0.047122 0.727529 -0.151960
v -0.105939 0.727002 -0.144260
v -0.151883 0.726514 -0.143493
v -0.177743 0.726391 -0.133663
v -0.211907 0.549420 0.009341
v -0.186451 0.629502 -0.090494
v -0.106457 0.595560 -0.151723
v -0.049051 0.595960 -0.165423
v -0.162238 0.595014 -0.128087
v -0.191739 0.600757 -0.046538
v -0.201765 0.556206 -0.051711
v -0.214861 0.588069 0.009173
v -0.217626 0.509029 0.009607
v -0.214853 0.448306 0.009817
v -0.158053 0.311269 -0.095338
v -0.116882 0.372310 -0.135731
v -0.189855 0.319114 -0.048183
v -0.195865 0.389542 -0.049002
v -0.202674 0.325460 0.009830
v -0.208547 0.391863 0.009810
v -0.062696 0.371214 -0.162307
v -0.205028 0.561206 0.064291
v -0.211395 0.607655 0.052173
v -0.207597 0.515801 0.064613
v -0.165408 0.690450 0.121731
v -0.188372 0.329341 0.072233
v -0.186789 0.393782 0.068078
v -0.142180 0.329548 0.121352
v -0.157248 0.395925 0.126055
v -0.193003 0.457178 0.067512
v -0.061922 0.341149 -0.169817
v -0.119986 0.342323 -0.141124
v -0.160599 0.384807 -0.099008
v 0.022733 0.463051 0.176780
v 0.017899 0.530125 0.178582
v -0.055071 0.529805 0.182729
v -0.053035 0.461847 0.185916
v 0.019636 0.614399 0.171920
v 0.021178 0.690236 0.153300
v 0.027098 0.401726 0.172972
v 0.032195 0.339021 0.163905
v 0.005369 0.760515 0.140377
v -0.037760 0.834251 0.104328
v -0.086375 0.826714 0.108091
v -0.073377 0.761402 0.138056
v -0.045305 0.385347 0.186832
v -0.029212 0.333558 0.179315
v -0.129857 0.870045 0.063858
v -0.130746 0.818162 0.101651
v -0.125694 0.761346 0.127789
v -0.025512 0.760287 0.134808
v -0.066075 0.878983 0.074845
v -0.118708 0.690796 0.142026
v -0.047973 0.691938 0.154274
v -0.110931 0.613839 0.149070
v -0.054655 0.614527 0.168511
v -0.111529 0.462392 0.170774
v -0.014536 0.797810 0.119389
v -0.022042 0.760952 0.139638
v 0.020396 0.829054 0.114171
v -0.047563 0.692019 0.158157
v -0.054244 0.614556 0.172411
v -0.054660 0.529842 0.186612
v 0.056574 0.727590 -0.154956
v -0.052624 0.461971 0.189799
v 0.023144 0.463175 0.180662
v 0.018310 0.530162 0.182464
v 0.020047 0.614429 0.175799
v 0.021589 0.690316 0.157182
v 0.098558 0.463408 0.167197
v 0.093315 0.530205 0.165605
v -0.044895 0.385721 0.190715
v -0.019341 0.351188 0.182197
v 0.032606 0.339396 0.167796
v 0.027509 0.402101 0.176888
v 0.110989 0.332153 0.155607
v 0.103894 0.399338 0.161895
v 0.087169 0.614587 0.160628
v 0.083546 0.690415 0.157903
v 0.027712 0.761154 0.144856
v 0.061130 0.829182 0.114239
v 0.088323 0.761215 0.142710
v 0.097617 0.829051 0.113196
v 0.175146 0.760582 0.103328
v 0.179101 0.816794 0.098165
v 0.148835 0.760721 0.130127
v 0.153426 0.820862 0.102444
v 0.181947 0.862001 0.063300
v 0.156290 0.866763 0.066410
v 0.110468 0.872372 0.077809
v 0.183714 0.892231 0.020057
v 0.157675 0.898774 0.020897
v 0.183143 0.911695 -0.026999
v 0.158040 0.920074 -0.027417
v 0.114162 0.908707 0.028709
v 0.114175 0.937549 -0.027462
v 0.073610 0.874726 0.082538
v 0.087353 0.916483 0.036506
v 0.092244 0.950071 -0.028374
v 0.182648 0.888918 -0.069872
v 0.156972 0.900663 -0.077988
v 0.112291 0.915526 -0.078416
v 0.074061 0.948955 -0.047463
v 0.053294 0.917885 -0.092694
v 0.042997 0.943903 -0.061786
v 0.151816 0.850381 -0.122660
v 0.105354 0.850911 -0.133395
v 0.182198 0.842560 -0.111173
v 0.178917 0.782029 -0.134061
v 0.150561 0.781952 -0.136679
v 0.103610 0.781950 -0.142964
v 0.059001 0.781957 -0.147130
v 0.060492 0.850947 -0.131466
v 0.141427 0.688411 0.123576
v 0.178983 0.689382 0.104069
v 0.104773 0.727550 -0.143210
v 0.145439 0.614080 0.114574
v 0.151630 0.530075 0.113755
v 0.166239 0.396761 0.125516
v 0.159642 0.463605 0.118824
v 0.175251 0.329141 0.118640
v 0.210790 0.322665 0.009383
v 0.206760 0.393449 0.010307
v 0.211477 0.449027 0.010107
v 0.213056 0.509687 0.009914
v 0.191329 0.444846 -0.041844
v 0.192892 0.506053 -0.050774
v 0.192939 0.390501 -0.042426
v 0.198387 0.319083 -0.046957
v 0.198654 0.607741 0.052332
v 0.212438 0.549783 0.009931
v 0.185491 0.561644 0.063722
v 0.183534 0.640595 0.083152
v 0.209934 0.588864 0.009912
v 0.196367 0.602111 -0.043934
v 0.162066 0.441469 -0.093522
v 0.164487 0.511392 -0.119131
v 0.169863 0.386425 -0.096159
v 0.167669 0.316573 -0.092946
v 0.109636 0.439443 -0.127900
v 0.111933 0.512993 -0.148090
v 0.115133 0.391692 -0.129061
v 0.112568 0.418411 -0.132801
v 0.119245 0.311236 -0.135033
v 0.114029 0.594572 -0.151857
v 0.107830 0.671192 -0.146684
v 0.166442 0.595129 -0.134902
v 0.152237 0.671822 -0.124661
v 0.153489 0.727572 -0.134629
v 0.180802 0.727634 -0.129015
v 0.186211 0.672576 -0.114176
v 0.192244 0.631112 -0.086647
v 0.202620 0.557074 -0.050165
v 0.057011 0.671742 -0.152627
v 0.059821 0.595185 -0.167328
v 0.058620 0.513550 -0.161153
v 0.054446 0.436481 -0.143027
v 0.052700 0.408172 -0.150886
v 0.056533 0.384249 -0.160764
v 0.065291 0.309117 -0.157245
v 0.063776 0.347143 -0.164495
v 0.119499 0.342505 -0.135226
v 0.169396 0.344234 -0.094009
v 0.052889 0.876635 0.091482
v -0.000048 0.799054 0.128424
v 0.186954 0.394683 0.067093
v 0.192568 0.328563 0.071708
v 0.185380 0.458129 0.066636
v 0.182341 0.516689 0.064089
v 0.003384 0.914943 -0.098052
v 0.001203 0.941734 -0.067660
v 0.005871 0.849127 -0.129486
v 0.001098 0.513529 -0.165608
v 0.000573 0.437054 -0.154515
v -0.000113 0.396647 -0.166004
v 0.004687 0.377231 -0.181680
v 0.015169 0.308604 -0.167902
v 0.005662 0.671247 -0.148029
v 0.006218 0.727563 -0.138604
v 0.005395 0.595868 -0.167455
v 0.009596 0.353386 -0.188751
v -0.107394 0.925802 -0.059859
v -0.151040 0.911043 -0.059382
v -0.178794 0.902834 -0.059068
v 0.157635 0.913512 -0.058286
v 0.183024 0.903449 -0.054019
v 0.113362 0.929681 -0.058522
vt 0.816001 0.943263
vt 0.815721 0.858856
vt 0.837351 0.871568
vt 0.836137 0.954891
vt 0.816319 0.780455
vt 0.837841 0.788731
vt 0.812103 0.703137
vt 0.833857 0.704835
vt 0.806226 0.632781
vt 0.831812 0.628374
vt 0.864532 0.887343
vt 0.865138 0.799337
vt 0.890500 0.802633
vt 0.888781 0.892334
vt 0.787777 0.538414
vt 0.826112 0.531078
vt 0.774584 0.468489
vt 0.826760 0.417786
vt 0.762812 0.011598
vt 0.820996 0.013939
vt 0.819716 0.115249
vt 0.767172 0.112817
vt 0.864484 0.623600
vt 0.865025 0.708564
vt 0.862954 0.970316
vt 0.883411 0.982927
vt 0.911694 0.805187
vt 0.866717 0.297058
vt 0.864901 0.413781
vt 0.824869 0.297668
vt 0.490211 0.876208
vt 0.524666 0.872197
vt 0.517593 0.934564
vt 0.491556 0.931924
vt 0.565374 0.882048
vt 0.541416 0.954377
vt 0.572172 0.924493
vt 0.578971 0.966939
vt 0.562132 0.989923
vt 0.602293 0.911346
vt 0.606431 0.949243
vt 0.620912 0.902260
vt 0.626338 0.938079
vt 0.490354 0.691081
vt 0.528258 0.688085
vt 0.527543 0.781498
vt 0.489790 0.783074
vt 0.566335 0.780924
vt 0.567032 0.691572
vt 0.596283 0.784549
vt 0.598156 0.873449
vt 0.615836 0.776851
vt 0.615485 0.866441
vt 0.597518 0.695052
vt 0.618736 0.697582
vt 0.496045 0.304807
vt 0.532458 0.305420
vt 0.530985 0.422463
vt 0.493243 0.422226
vt 0.496289 0.193612
vt 0.536055 0.192824
vt 0.528913 0.609817
vt 0.569591 0.613919
vt 0.578949 0.196081
vt 0.573237 0.304743
vt 0.499023 0.134924
vt 0.537102 0.151485
vt 0.498773 0.103168
vt 0.541130 0.134147
vt 0.541654 0.096550
vt 0.498104 0.071572
vt 0.541501 0.052653
vt 0.583673 0.054125
vt 0.584456 0.097357
vt 0.623235 0.195448
vt 0.620404 0.301749
vt 0.669679 0.196419
vt 0.674865 0.290278
vt 0.572791 0.423585
vt 0.490713 0.612760
vt 0.600722 0.616803
vt 0.618851 0.620189
vt 0.491299 0.532019
vt 0.529313 0.530439
vt 0.571413 0.532576
vt 0.605720 0.534995
vt 0.635118 0.543204
vt 0.613215 0.423228
vt 0.647619 0.474024
vt 0.728393 0.342517
vt 0.675876 0.368963
vt 0.728347 0.281231
vt 0.728279 0.384538
vt 0.676017 0.414298
vt 0.728171 0.193506
vt 0.627044 0.111265
vt 0.664326 0.015147
vt 0.624569 0.015386
vt 0.669575 0.116224
vt 0.728279 0.014872
vt 0.728377 0.113115
vt 0.825295 0.208967
vt 0.866847 0.202787
vt 0.769544 0.349633
vt 0.757087 0.409528
vt 0.768798 0.284910
vt 0.864357 0.523892
vt 0.768226 0.203655
vt 0.864498 0.015386
vt 0.865659 0.113753
vt 0.495831 0.014955
vt 0.541929 0.015386
vt 0.583167 0.015386
vt 0.954638 0.293649
vt 0.907558 0.293741
vt 0.907175 0.200181
vt 0.954013 0.198703
vt 0.954923 0.410485
vt 0.907007 0.414203
vt 0.955062 0.517723
vt 0.906181 0.521304
vt 0.954093 0.114366
vt 0.906951 0.099469
vt 0.906671 0.015386
vt 0.954962 0.015389
vt 0.944117 0.679911
vt 0.934450 0.621797
vt 0.951201 0.625143
vt 0.897445 0.718181
vt 0.900477 0.620633
vt 0.933996 0.734519
vt 0.225685 0.457493
vt 0.196609 0.414135
vt 0.247214 0.356441
vt 0.248432 0.420597
vt 0.096464 0.289096
vt 0.044441 0.285457
vt 0.043729 0.190073
vt 0.097185 0.193527
vt 0.096967 0.406723
vt 0.044855 0.406255
vt 0.097130 0.513682
vt 0.044540 0.514597
vt 0.146021 0.195344
vt 0.144597 0.291183
vt 0.098122 0.107870
vt 0.044150 0.083135
vt 0.066965 0.035303
vt 0.099950 0.015389
vt 0.152845 0.015573
vt 0.148807 0.105412
vt 0.143438 0.411702
vt 0.142032 0.515621
vt 0.070818 0.675949
vt 0.061074 0.617039
vt 0.095834 0.616026
vt 0.137903 0.616522
vt 0.137326 0.717846
vt 0.106350 0.723514
vt 0.195660 0.294608
vt 0.239955 0.289120
vt 0.181354 0.620344
vt 0.177380 0.710405
vt 0.204243 0.622561
vt 0.195560 0.707131
vt 0.195098 0.790761
vt 0.173555 0.795681
vt 0.137931 0.797250
vt 0.188022 0.865150
vt 0.169702 0.873527
vt 0.186358 0.930244
vt 0.169120 0.943430
vt 0.137546 0.879940
vt 0.137660 0.965311
vt 0.108438 0.801283
vt 0.115752 0.883502
vt 0.120421 0.977643
vt 0.379912 0.902755
vt 0.360764 0.895196
vt 0.363453 0.858638
vt 0.383639 0.865429
vt 0.376185 0.940081
vt 0.411316 0.925630
vt 0.407851 0.962829
vt 0.440560 0.956119
vt 0.414781 0.888432
vt 0.455831 0.882389
vt 0.461305 0.939035
vt 0.490624 0.876420
vt 0.490452 0.932037
vt 0.390032 0.784649
vt 0.421139 0.782276
vt 0.365686 0.782294
vt 0.364505 0.696311
vt 0.387469 0.691105
vt 0.421597 0.688831
vt 0.452377 0.687216
vt 0.451428 0.784237
vt 0.489469 0.782951
vt 0.490042 0.691034
vt 0.194783 0.521136
vt 0.218972 0.526343
vt 0.454712 0.609239
vt 0.192900 0.101468
vt 0.195997 0.196710
vt 0.197657 0.016502
vt 0.289318 0.114632
vt 0.241641 0.107500
vt 0.237704 0.020452
vt 0.288647 0.016825
vt 0.288759 0.194462
vt 0.240908 0.198142
vt 0.288820 0.287758
vt 0.324976 0.195874
vt 0.327089 0.285907
vt 0.324380 0.117063
vt 0.323635 0.016036
vt 0.288868 0.343783
vt 0.288827 0.424182
vt 0.327076 0.363536
vt 0.315362 0.443356
vt 0.369241 0.195886
vt 0.374359 0.301608
vt 0.368936 0.114544
vt 0.366958 0.053027
vt 0.367906 0.014404
vt 0.415801 0.195182
vt 0.416419 0.304196
vt 0.456022 0.191934
vt 0.496153 0.193617
vt 0.496099 0.304822
vt 0.455242 0.304568
vt 0.414543 0.124344
vt 0.416322 0.164768
vt 0.460975 0.115233
vt 0.498684 0.103216
vt 0.459814 0.151380
vt 0.459560 0.060463
vt 0.458726 0.013239
vt 0.495682 0.014927
vt 0.497981 0.071536
vt 0.415613 0.014194
vt 0.415124 0.052700
vt 0.493252 0.422229
vt 0.456894 0.422404
vt 0.455078 0.531021
vt 0.417293 0.422143
vt 0.380055 0.422328
vt 0.419900 0.531143
vt 0.383711 0.532259
vt 0.386676 0.612729
vt 0.420975 0.610321
vt 0.364067 0.616017
vt 0.354261 0.539873
vt 0.341142 0.486139
vt 0.090590 0.799397
vt 0.073286 0.727114
vt 0.358075 0.931754
vt 0.425022 0.979571
vn -0.2914 0.9559 0.0359
vn -0.1485 0.8699 0.4704
vn -0.1858 0.8769 0.4433
vn -0.3108 0.9500 0.0313
vn -0.1086 0.6180 0.7786
vn -0.1016 0.6537 0.7499
vn -0.2928 0.2616 0.9197
vn -0.2416 0.3685 0.8977
vn -0.5120 0.1338 0.8485
vn -0.4233 0.1885 0.8862
vn -0.3306 0.8271 0.4544
vn -0.2323 0.6533 0.7206
vn -0.2029 0.6221 0.7562
vn -0.4121 0.7581 0.5054
vn -0.5429 -0.1086 0.8327
vn -0.4780 -0.0304 0.8778
vn -0.6849 -0.1457 0.7139
vn -0.6297 -0.0590 0.7746
vn -0.9125 -0.0241 0.4083
vn -0.6559 -0.1998 0.7279
vn -0.7757 -0.0149 0.6310
vn -0.9079 -0.0040 0.4191
vn -0.2581 0.2638 0.9294
vn -0.2119 0.4550 0.8649
vn -0.4294 0.9027 0.0282
vn -0.5554 0.8122 -0.1786
vn -0.0402 0.5979 0.8005
vn -0.5723 0.0811 0.8160
vn -0.4612 0.0854 0.8832
vn -0.7301 -0.0351 0.6824
vn 0.0072 0.6163 -0.7875
vn -0.0820 0.6084 -0.7894
vn -0.0891 0.7613 -0.6422
vn 0.0047 0.7503 -0.6611
vn -0.2086 0.6996 -0.6834
vn -0.2721 0.8150 -0.5116
vn -0.3333 0.8763 -0.3479
vn -0.2871 0.8985 -0.3320
vn -0.2791 0.9072 -0.3147
vn -0.0039 0.0927 -0.9957
vn 0.0872 0.1378 -0.9866
vn 0.0330 0.3558 -0.9340
vn -0.0257 0.2933 -0.9557
vn -0.1117 0.3860 -0.9157
vn -0.1090 0.0983 -0.9892
vn -0.1979 0.4170 -0.8871
vn -0.2375 0.7168 -0.6556
vn -0.1825 0.3904 -0.9024
vn -0.2202 0.7146 -0.6640
vn -0.1210 0.1327 -0.9837
vn -0.1261 0.1061 -0.9863
vn 0.0594 -0.0907 -0.9941
vn -0.1344 -0.0679 -0.9886
vn -0.1040 0.0688 -0.9922
vn -0.0087 0.1067 -0.9942
vn 0.1093 0.0558 -0.9924
vn -0.0912 0.0436 -0.9949
vn 0.0608 0.0934 -0.9938
vn -0.0947 0.0391 -0.9947
vn -0.4766 -0.0534 -0.8775
vn -0.3711 -0.0523 -0.9271
vn 0.0848 0.4656 -0.8809
vn -0.0689 0.2374 -0.9690
vn 0.0303 0.4208 -0.9067
vn -0.2470 0.1056 -0.9632
vn -0.3644 0.0950 -0.9264
vn 0.0720 -0.0479 -0.9963
vn -0.3149 0.0308 -0.9486
vn -0.5996 0.0053 -0.8003
vn -0.5455 0.0898 -0.8333
vn -0.7679 -0.1049 -0.6319
vn -0.7200 -0.1167 -0.6841
vn -0.8917 -0.0720 -0.4469
vn -0.9283 -0.0828 -0.3625
vn -0.2987 0.0032 -0.9543
vn 0.0036 0.0876 -0.9961
vn -0.2057 0.0155 -0.9785
vn -0.3648 -0.0373 -0.9303
vn 0.0537 0.1673 -0.9844
vn 0.0110 0.0941 -0.9955
vn -0.1780 0.0382 -0.9833
vn -0.4257 -0.1033 -0.8990
vn -0.5780 -0.3164 -0.7522
vn -0.6927 -0.0524 -0.7193
vn -0.8630 -0.2077 -0.4606
vn -0.9988 0.0320 -0.0357
vn -0.9363 0.0988 -0.3370
vn -0.9998 -0.0115 -0.0160
vn -0.9986 -0.0165 -0.0510
vn -0.9306 0.1429 -0.3371
vn -0.9971 -0.0764 -0.0059
vn -0.7492 0.0220 -0.6620
vn -0.9106 -0.0758 -0.4063
vn -0.7774 -0.0582 -0.6263
vn -0.9167 0.0012 -0.3995
vn -0.9980 -0.0567 0.0281
vn -0.9959 -0.0754 0.0502
vn -0.7973 0.0731 0.5991
vn -0.5525 0.0437 0.8323
vn -0.8860 -0.0291 0.4628
vn -0.9667 -0.0634 0.2478
vn -0.8728 -0.0664 0.4835
vn -0.3265 0.0925 0.9406
vn -0.8466 -0.0883 0.5249
vn -0.4670 -0.2077 0.8595
vn -0.4343 -0.1280 0.8916
vn 0.1134 -0.3164 -0.9418
vn -0.1994 -0.0444 -0.9789
vn -0.6040 -0.1036 -0.7902
vn 0.0507 0.0691 0.9963
vn -0.1394 0.1136 0.9837
vn -0.0723 0.0064 0.9974
vn 0.1202 -0.0362 0.9921
vn -0.0450 0.1605 0.9860
vn -0.1533 0.1531 0.9763
vn -0.0216 0.2203 0.9752
vn -0.0578 0.2063 0.9768
vn 0.1880 -0.0524 0.9808
vn -0.0606 -0.0893 0.9942
vn 0.0043 -0.1570 0.9876
vn 0.2516 -0.1184 0.9606
vn -0.0401 0.3898 0.9200
vn -0.0300 0.3154 0.9485
vn -0.1739 0.2438 0.9541
vn -0.1099 0.4683 0.8767
vn -0.0674 0.2987 0.9520
vn 0.0068 0.4589 0.8885
vn 0.6749 -0.1437 0.7238
vn 0.6757 -0.0295 0.7366
vn 0.8405 -0.0638 0.5381
vn 0.8767 -0.0920 0.4721
vn 0.1328 0.0513 0.9898
vn 0.0560 0.1069 0.9927
vn 0.1197 0.0058 0.9928
vn 0.1543 -0.0266 0.9877
vn 0.0867 0.1556 0.9840
vn -0.0072 0.1642 0.9864
vn 0.0113 0.1839 0.9829
vn 0.0190 0.2112 0.9773
vn 0.4165 0.0165 0.9090
vn 0.4425 0.0569 0.8950
vn 0.1850 -0.0716 0.9801
vn 0.1923 -0.0217 0.9811
vn 0.2205 -0.1018 0.9701
vn 0.1982 -0.1108 0.9739
vn 0.3516 -0.0485 0.9349
vn 0.3645 -0.0339 0.9306
vn 0.3926 0.0776 0.9164
vn 0.2184 0.0781 0.9727
vn -0.0301 0.3849 0.9225
vn -0.0658 0.2583 0.9638
vn -0.0286 0.2840 0.9584
vn 0.1136 0.2932 0.9493
vn 0.1333 0.4884 0.8624
vn 0.0406 0.4508 0.8917
vn 0.7549 0.0714 0.6519
vn 0.8680 0.0190 0.4962
vn 0.4745 0.1147 0.8727
vn 0.2295 0.4936 0.8389
vn 0.6763 -0.0322 0.7359
vn 0.3101 0.4449 0.8402
vn 0.2126 0.7009 0.6809
vn 0.2389 0.6980 0.6751
vn 0.2127 0.6707 0.7106
vn 0.2286 0.8497 0.4751
vn 0.2569 0.8439 0.4710
vn 0.3265 0.9413 0.0858
vn 0.3303 0.9384 0.1015
vn 0.3316 0.8002 0.4998
vn 0.4133 0.9068 0.0827
vn 0.2459 0.6127 0.7511
vn 0.3334 0.7616 0.5556
vn 0.4877 0.8605 -0.1470
vn 0.3573 0.8459 -0.3960
vn 0.3927 0.7938 -0.4645
vn 0.4536 0.6417 -0.6185
vn 0.3566 0.6921 -0.6276
vn 0.3064 0.8533 -0.4220
vn 0.2599 0.8146 -0.5186
vn 0.2284 0.7148 -0.6609
vn 0.1010 0.6682 -0.7371
vn 0.0958 0.7725 -0.6277
vn 0.2866 0.4463 -0.8478
vn 0.1022 0.3789 -0.9198
vn 0.4231 0.4492 -0.7869
vn 0.1379 0.0743 -0.9877
vn 0.1349 0.0694 -0.9884
vn 0.1169 0.1031 -0.9878
vn -0.0466 0.1521 -0.9873
vn -0.0201 0.3429 -0.9391
vn 0.5452 -0.0827 0.8342
vn 0.4584 -0.1580 0.8746
vn -0.0562 0.0348 -0.9978
vn 0.7484 0.0691 0.6596
vn 0.7597 0.1113 0.6406
vn 0.7916 0.0479 0.6092
vn 0.9998 0.0079 0.0194
vn 0.9378 0.0505 0.3434
vn 0.9430 0.0887 0.3208
vn 0.9978 0.0663 0.0057
vn 0.9990 -0.0406 0.0210
vn 0.9048 0.0493 0.4231
vn 0.9973 -0.0067 0.0727
vn 0.9140 -0.0341 -0.4042
vn 0.9292 -0.1232 -0.3485
vn 0.9351 0.0597 -0.3492
vn 0.9248 0.0677 -0.3745
vn 0.9945 -0.0105 0.1040
vn 0.9958 0.0834 0.0382
vn 0.9628 -0.0500 -0.2657
vn 0.9852 0.1486 -0.0858
vn 0.7601 -0.0406 -0.6485
vn 0.7114 -0.2118 -0.6701
vn 0.7614 0.0328 -0.6475
vn 0.7566 -0.0086 -0.6538
vn 0.7399 -0.0631 -0.6697
vn 0.4096 0.0063 -0.9123
vn 0.3429 -0.1829 -0.9214
vn 0.2236 0.0260 -0.9743
vn 0.1566 -0.1477 -0.9766
vn 0.4785 0.0410 -0.8771
vn 0.4079 0.0992 -0.9076
vn 0.3558 0.3203 -0.8779
vn 0.2549 0.2975 -0.9201
vn 0.4045 -0.0255 -0.9142
vn 0.3261 -0.1417 -0.9346
vn 0.5200 -0.0095 -0.8541
vn 0.5451 0.0511 -0.8368
vn 0.1177 0.0499 -0.9918
vn -0.0000 0.1170 -0.9931
vn 0.3007 0.0300 -0.9532
vn 0.6458 0.0241 -0.7631
vn 0.2678 0.0649 -0.9613
vn 0.4377 -0.0827 -0.8953
vn 0.2281 -0.0771 -0.9706
vn 0.1863 0.0193 -0.9823
vn 0.1836 -0.1478 -0.9718
vn 0.2686 -0.3748 -0.8873
vn 0.8559 -0.0099 -0.5170
vn 0.2949 0.5092 0.8086
vn -0.0029 0.4311 0.9023
usemtl MAT_Vest.001
s 1
f 2/1/1 3/2/2 17/3/3
f 17/3/3 18/4/4 2/1/1
f 3/2/2 5/5/5 16/6/6
f 16/6/6 17/3/3 3/2/2
f 5/5/5 6/7/7 15/8/8
f 15/8/8 16/6/6 5/5/5
f 15/8/8 6/7/7 7/9/9
f 7/9/9 14/10/10 15/8/8
f 4/11/11 102/12/12 13/13/13
f 13/13/13 8/14/14 4/11/11
f 7/9/9 9/15/15 79/16/16
f 79/16/16 14/10/10 7/9/9
f 10/17/17 11/18/18 79/16/16
f 79/16/16 9/15/15 10/17/17
f 80/19/19 82/20/20 83/21/21
f 83/21/21 81/22/22 80/19/19
f 14/10/10 104/23/23 103/24/24
f 103/24/24 15/8/8 14/10/10
f 103/24/24 102/12/12 16/6/6
f 16/6/6 15/8/8 103/24/24
f 102/12/12 4/11/11 17/3/3
f 17/3/3 16/6/6 102/12/12
f 4/11/11 1/25/25 18/4/4
f 18/4/4 17/3/3 4/11/11
f 1/25/25 4/11/11 8/14/14
f 8/14/14 19/26/26 1/25/25
f 13/13/13 106/27/27 8/14/14
f 12/28/28 109/29/29 11/18/18
f 11/18/18 22/30/30 12/28/28
f 224/31/31 23/32/32 24/33/33
f 24/33/33 225/34/34 224/31/31
f 23/32/32 25/35/35 26/36/36
f 26/36/36 24/33/33 23/32/32
f 26/36/36 236/37/37 1/38/25
f 1/38/25 19/39/26 26/36/36
f 236/37/37 237/40/38 18/41/4
f 18/41/4 1/38/25 236/37/37
f 18/41/4 237/40/38 238/42/39
f 238/42/39 2/43/1 18/41/4
f 29/44/40 30/45/41 31/46/42
f 31/46/42 226/47/43 29/44/40
f 23/32/32 224/31/31 226/47/43
f 226/47/43 31/46/42 23/32/32
f 31/46/42 32/48/44 25/35/35
f 25/35/35 23/32/32 31/46/42
f 32/48/44 31/46/42 30/45/41
f 30/45/41 33/49/45 32/48/44
f 32/48/44 34/50/46 27/51/47
f 27/51/47 25/35/35 32/48/44
f 34/50/46 35/52/48 28/53/49
f 28/53/49 27/51/47 34/50/46
f 35/52/48 34/50/46 36/54/50
f 36/54/50 37/55/51 35/52/48
f 34/50/46 32/48/44 33/49/45
f 33/49/45 36/54/50 34/50/46
f 227/56/52 38/57/53 62/58/54
f 62/58/54 234/59/55 227/56/52
f 228/60/56 39/61/57 38/57/53
f 38/57/53 227/56/52 228/60/56
f 33/49/45 30/45/41 55/62/58
f 55/62/58 56/63/59 33/49/45
f 39/61/57 45/64/60 40/65/61
f 40/65/61 38/57/53 39/61/57
f 228/60/56 229/66/62 42/67/63
f 42/67/63 39/61/57 228/60/56
f 229/66/62 230/68/64 43/69/65
f 43/69/65 42/67/63 229/66/62
f 75/70/66 230/68/64 235/71/67
f 235/71/67 85/72/68 75/70/66
f 42/67/63 45/64/60 39/61/57
f 42/67/63 43/69/65 45/64/60
f 86/73/69 70/74/70 75/70/66
f 75/70/66 85/72/68 86/73/69
f 45/64/60 47/75/71 48/76/72
f 48/76/72 40/65/61 45/64/60
f 47/75/71 49/77/73 50/78/74
f 50/78/74 48/76/72 47/75/71
f 38/57/53 40/65/61 61/79/75
f 61/79/75 62/58/54 38/57/53
f 30/45/41 29/44/40 233/80/76
f 233/80/76 55/62/58 30/45/41
f 36/54/50 33/49/45 56/63/59
f 56/63/59 57/81/77 36/54/50
f 36/54/50 57/81/77 58/82/78
f 58/82/78 37/55/51 36/54/50
f 232/83/79 51/84/80 55/62/58
f 55/62/58 233/80/76 232/83/79
f 51/84/80 52/85/81 56/63/59
f 56/63/59 55/62/58 51/84/80
f 52/85/81 53/86/82 57/81/77
f 57/81/77 56/63/59 52/85/81
f 53/86/82 54/87/83 58/82/78
f 58/82/78 57/81/77 53/86/82
f 53/86/82 63/88/84 60/89/85
f 60/89/85 54/87/83 53/86/82
f 52/85/81 51/84/80 62/58/54
f 62/58/54 61/79/75 52/85/81
f 61/79/75 63/88/84 53/86/82
f 53/86/82 52/85/81 61/79/75
f 232/83/79 234/59/55 62/58/54
f 62/58/54 51/84/80 232/83/79
f 63/88/84 61/79/75 40/65/61
f 40/65/61 48/76/72 63/88/84
f 59/90/86 65/91/87 50/78/74
f 50/78/74 67/92/88 59/90/86
f 65/91/87 59/90/86 66/93/89
f 66/93/89 64/94/90 65/91/87
f 65/91/87 63/88/84 48/76/72
f 48/76/72 50/78/74 65/91/87
f 63/88/84 65/91/87 64/94/90
f 64/94/90 60/89/85 63/88/84
f 67/92/88 50/78/74 49/77/73
f 49/77/73 68/95/91 67/92/88
f 70/74/70 86/73/69 87/96/92
f 71/97/93 87/96/92 69/98/94
f 71/97/93 72/99/95 87/96/92
f 72/99/95 71/97/93 73/100/96
f 73/100/96 74/101/97 72/99/95
f 74/101/97 68/95/91 49/77/73
f 49/77/73 72/99/95 74/101/97
f 72/99/95 49/77/73 47/75/71
f 47/75/71 87/96/92 72/99/95
f 70/74/70 45/64/60 43/69/65
f 43/69/65 75/70/66 70/74/70
f 75/70/66 43/69/65 230/68/64
f 70/74/70 87/96/92 47/75/71
f 47/75/71 45/64/60 70/74/70
f 41/102/98 111/103/99 12/28/28
f 12/28/28 22/30/30 41/102/98
f 73/100/96 80/19/19 81/22/22
f 81/22/22 74/101/97 73/100/96
f 59/90/86 76/104/100 77/105/101
f 77/105/101 66/93/89 59/90/86
f 67/92/88 78/106/102 76/104/100
f 76/104/100 59/90/86 67/92/88
f 22/30/30 11/18/18 76/104/100
f 76/104/100 78/106/102 22/30/30
f 76/104/100 11/18/18 10/17/17
f 10/17/17 77/105/101 76/104/100
f 11/18/18 109/29/29 107/107/103
f 107/107/103 79/16/16 11/18/18
f 79/16/16 107/107/103 104/23/23
f 104/23/23 14/10/10 79/16/16
f 84/108/104 78/106/102 67/92/88
f 67/92/88 68/95/91 84/108/104
f 84/108/104 41/102/98 22/30/30
f 22/30/30 78/106/102 84/108/104
f 68/95/91 74/101/97 81/22/22
f 81/22/22 84/108/104 68/95/91
f 41/102/98 84/108/104 81/22/22
f 81/22/22 83/21/21 41/102/98
f 82/20/20 21/109/105 20/110/106
f 20/110/106 83/21/21 82/20/20
f 231/111/107 44/112/108 85/72/68
f 85/72/68 235/71/67 231/111/107
f 85/72/68 44/112/108 46/113/109
f 46/113/109 86/73/69 85/72/68
f 46/113/109 69/98/94 87/96/92
f 87/96/92 86/73/69 46/113/109
f 83/21/21 20/110/106 111/103/99
f 111/103/99 41/102/98 83/21/21
f 89/114/110 90/115/111 91/116/112
f 91/116/112 88/117/113 89/114/110
f 89/114/110 92/118/114 110/119/115
f 110/119/115 90/115/111 89/114/110
f 110/119/115 92/118/114 93/120/116
f 93/120/116 108/121/117 110/119/115
f 94/122/118 88/117/113 91/116/112
f 91/116/112 100/123/119 94/122/118
f 101/124/120 95/125/121 94/122/118
f 94/122/118 100/123/119 101/124/120
f 112/126/122 105/127/123 96/128/124
f 105/127/123 108/121/117 93/120/116
f 93/120/116 96/128/124 105/127/123
f 98/129/125 103/24/24 104/23/23
f 104/23/23 99/130/126 98/129/125
f 13/13/13 102/12/12 103/24/24
f 103/24/24 98/129/125 13/13/13
f 97/131/127 105/127/123 112/126/122
f 99/130/126 104/23/23 107/107/103
f 107/107/103 108/121/117 99/130/126
f 107/107/103 109/29/29 110/119/115
f 110/119/115 108/121/117 107/107/103
f 109/29/29 12/28/28 90/115/111
f 90/115/111 110/119/115 109/29/29
f 111/103/99 91/116/112 90/115/111
f 90/115/111 12/28/28 111/103/99
f 97/131/127 98/129/125 99/130/126
f 99/130/126 105/127/123 97/131/127
f 98/129/125 97/131/127 106/27/27
f 106/27/27 13/13/13 98/129/125
f 108/121/117 105/127/123 99/130/126
f 20/110/106 100/123/119 91/116/112
f 91/116/112 111/103/99 20/110/106
f 100/123/119 20/110/106 21/109/105
f 21/109/105 101/124/120 100/123/119
f 187/132/128 171/133/129 186/134/130
f 186/134/130 184/135/131 187/132/128
f 121/136/132 117/137/133 119/138/134
f 119/138/134 120/139/135 121/136/132
f 121/136/132 122/140/136 116/141/137
f 116/141/137 117/137/133 121/136/132
f 116/141/137 122/140/136 123/142/138
f 123/142/138 115/143/139 116/141/137
f 120/139/135 124/144/140 125/145/141
f 125/145/141 121/136/132 120/139/135
f 129/146/142 120/139/135 119/138/134
f 119/138/134 126/147/143 129/146/142
f 127/148/144 128/149/145 129/146/142
f 129/146/142 126/147/143 127/148/144
f 128/149/145 130/150/146 131/151/147
f 131/151/147 129/146/142 128/149/145
f 124/144/140 120/139/135 129/146/142
f 129/146/142 131/151/147 124/144/140
f 132/152/148 122/140/136 121/136/132
f 121/136/132 125/145/141 132/152/148
f 123/142/138 122/140/136 132/152/148
f 132/152/148 133/153/149 123/142/138
f 219/154/150 113/155/151 134/156/152
f 113/155/151 115/143/139 123/142/138
f 123/142/138 134/156/152 113/155/151
f 133/153/149 136/157/153 134/156/152
f 134/156/152 123/142/138 133/153/149
f 136/157/153 137/158/154 135/159/155
f 135/159/155 134/156/152 136/157/153
f 172/160/156 223/161/157 186/134/130
f 186/134/130 171/133/129 172/160/156
f 137/158/154 136/157/153 140/162/158
f 140/162/158 141/163/159 137/158/154
f 140/162/158 138/164/160 139/165/161
f 139/165/161 141/163/159 140/162/158
f 139/165/161 142/166/162 143/167/163
f 143/167/163 141/163/159 139/165/161
f 141/163/159 143/167/163 144/168/164
f 144/168/164 137/158/154 141/163/159
f 145/169/165 146/170/166 143/167/163
f 143/167/163 142/166/162 145/169/165
f 146/170/166 145/169/165 147/171/167
f 147/171/167 148/172/168 146/170/166
f 143/167/163 146/170/166 149/173/169
f 149/173/169 144/168/164 143/167/163
f 149/173/169 146/170/166 148/172/168
f 148/172/168 150/174/170 149/173/169
f 151/175/171 135/159/155 137/158/154
f 137/158/154 144/168/164 151/175/171
f 144/168/164 149/173/169 152/176/172
f 152/176/172 151/175/171 144/168/164
f 149/173/169 150/174/170 153/177/173
f 153/177/173 152/176/172 149/173/169
f 239/178/174 240/179/175 154/180/176
f 154/180/176 155/181/177 239/178/174
f 148/182/168 239/178/174 241/183/178
f 241/183/178 150/184/170 148/182/168
f 157/185/179 241/183/178 156/186/180
f 158/187/181 159/188/182 157/185/179
f 157/185/179 156/186/180 158/187/181
f 159/188/182 158/187/181 224/189/31
f 224/189/31 225/190/34 159/188/182
f 155/181/177 160/191/183 161/192/184
f 161/192/184 156/186/180 155/181/177
f 155/181/177 154/180/176 162/193/185
f 162/193/185 160/191/183 155/181/177
f 160/191/183 162/193/185 163/194/186
f 163/194/186 164/195/187 160/191/183
f 164/195/187 165/196/188 161/192/184
f 161/192/184 160/191/183 164/195/187
f 165/196/188 166/197/189 167/198/190
f 167/198/190 161/192/184 165/196/188
f 158/187/181 156/186/180 161/192/184
f 161/192/184 167/198/190 158/187/181
f 224/189/31 158/187/181 167/198/190
f 167/198/190 226/199/43 224/189/31
f 166/197/189 29/200/40 226/199/43
f 226/199/43 167/198/190 166/197/189
f 133/153/149 168/201/191 140/162/158
f 140/162/158 136/157/153 133/153/149
f 168/201/191 169/202/192 138/164/160
f 138/164/160 140/162/158 168/201/191
f 233/80/76 29/200/40 166/197/189
f 166/197/189 118/203/193 233/80/76
f 132/152/148 171/133/129 168/201/191
f 168/201/191 133/153/149 132/152/148
f 171/133/129 132/152/148 125/145/141
f 125/145/141 172/160/156 171/133/129
f 131/151/147 173/204/194 174/205/195
f 174/205/195 124/144/140 131/151/147
f 172/160/156 125/145/141 124/144/140
f 124/144/140 174/205/195 172/160/156
f 173/204/194 131/151/147 130/150/146
f 130/150/146 175/206/196 173/204/194
f 177/207/197 220/208/198 221/209/199
f 221/209/199 176/210/200 177/207/197
f 178/211/201 222/212/202 220/208/198
f 220/208/198 177/207/197 178/211/201
f 179/213/203 223/161/157 222/212/202
f 222/212/202 178/211/201 179/213/203
f 179/213/203 178/211/201 180/214/204
f 180/214/204 181/215/205 179/213/203
f 180/214/204 178/211/201 177/207/197
f 177/207/197 182/216/206 180/214/204
f 176/210/200 183/217/207 182/216/206
f 182/216/206 177/207/197 176/210/200
f 184/135/131 186/134/130 185/218/208
f 185/218/208 188/219/209 184/135/131
f 179/213/203 185/218/208 186/134/130
f 186/134/130 223/161/157 179/213/203
f 168/201/191 171/133/129 187/132/128
f 187/132/128 169/202/192 168/201/191
f 207/220/210 189/221/211 188/219/209
f 188/219/209 185/218/208 207/220/210
f 181/215/205 180/214/204 190/222/212
f 190/222/212 191/223/213 181/215/205
f 182/216/206 192/224/214 190/222/212
f 190/222/212 180/214/204 182/216/206
f 182/216/206 183/217/207 217/225/215
f 217/225/215 192/224/214 182/216/206
f 217/225/215 183/217/207 193/226/216
f 190/222/212 194/227/217 195/228/218
f 195/228/218 191/223/213 190/222/212
f 211/229/219 228/230/56 227/231/52
f 227/231/52 210/232/220 211/229/219
f 192/224/214 196/233/221 197/234/222
f 197/234/222 190/222/212 192/224/214
f 213/235/223 230/236/64 229/66/62
f 229/66/62 212/237/224 213/235/223
f 212/237/224 229/66/62 228/230/56
f 228/230/56 211/229/219 212/237/224
f 215/238/225 214/239/226 231/240/107
f 231/240/107 235/241/67 215/238/225
f 193/226/216 198/242/227 216/243/228
f 216/243/228 217/225/215 193/226/216
f 197/234/222 194/227/217 190/222/212
f 234/244/55 209/245/229 210/232/220
f 210/232/220 227/231/52 234/244/55
f 209/245/229 234/244/55 232/83/79
f 232/83/79 208/246/230 209/245/229
f 208/246/230 232/83/79 233/80/76
f 233/80/76 118/203/193 208/246/230
f 195/228/218 199/247/231 201/248/232
f 201/248/232 191/223/213 195/228/218
f 199/247/231 200/249/233 202/250/234
f 202/250/234 201/248/232 199/247/231
f 203/251/235 202/250/234 200/249/233
f 200/249/233 170/252/236 203/251/235
f 170/252/236 165/196/188 164/195/187
f 164/195/187 203/251/235 170/252/236
f 204/253/237 203/251/235 164/195/187
f 164/195/187 163/194/186 204/253/237
f 205/254/238 202/250/234 203/251/235
f 203/251/235 204/253/237 205/254/238
f 206/255/239 201/248/232 202/250/234
f 202/250/234 205/254/238 206/255/239
f 185/218/208 179/213/203 181/215/205
f 181/215/205 207/220/210 185/218/208
f 207/220/210 201/248/232 206/255/239
f 206/255/239 189/221/211 207/220/210
f 191/223/213 201/248/232 207/220/210
f 207/220/210 181/215/205 191/223/213
f 165/196/188 170/252/236 118/203/193
f 118/203/193 166/197/189 165/196/188
f 170/252/236 200/249/233 208/246/230
f 208/246/230 118/203/193 170/252/236
f 200/249/233 199/247/231 209/245/229
f 209/245/229 208/246/230 200/249/233
f 199/247/231 195/228/218 210/232/220
f 210/232/220 209/245/229 199/247/231
f 210/232/220 195/228/218 194/227/217
f 194/227/217 211/229/219 210/232/220
f 211/229/219 194/227/217 197/234/222
f 197/234/222 212/237/224 211/229/219
f 212/237/224 197/234/222 196/233/221
f 196/233/221 213/235/223 212/237/224
f 216/243/228 198/242/227 214/239/226
f 214/239/226 215/238/225 216/243/228
f 235/241/67 230/236/64 213/235/223
f 213/235/223 215/238/225 235/241/67
f 196/233/221 216/243/228 215/238/225
f 215/238/225 213/235/223 196/233/221
f 196/233/221 192/224/214 217/225/215
f 217/225/215 216/243/228 196/233/221
f 135/159/155 151/175/171 218/256/240
f 218/256/240 114/257/241 135/159/155
f 218/256/240 151/175/171 152/176/172
f 135/159/155 114/257/241 219/154/150
f 219/154/150 134/156/152 135/159/155
f 220/208/198 173/204/194 175/206/196
f 175/206/196 221/209/199 220/208/198
f 222/212/202 174/205/195 173/204/194
f 173/204/194 220/208/198 222/212/202
f 223/161/157 172/160/156 174/205/195
f 174/205/195 222/212/202 223/161/157
f 236/37/37 25/35/35 27/51/47
f 27/51/47 237/40/38 236/37/37
f 237/40/38 27/51/47 28/53/49
f 28/53/49 238/42/39 237/40/38
f 26/36/36 25/35/35 236/37/37
f 239/178/174 148/182/168 147/258/167
f 147/258/167 240/179/175 239/178/174
f 239/178/174 155/181/177 156/186/180
f 156/186/180 241/183/178 239/178/174
f 157/185/179 153/259/173 150/184/170
f 150/184/170 241/183/178 157/185/179
